%YAML 1.1
%TAG !u! tag:unity3d.com,2011:
--- !u!114 &11400000
MonoBehaviour:
  m_ObjectHideFlags: 0
  m_PrefabParentObject: {fileID: 0}
  m_PrefabInternal: {fileID: 0}
  m_GameObject: {fileID: 0}
  m_Enabled: 1
  m_EditorHideFlags: 0
  m_Script: {fileID: 11500000, guid: 01baf57979a8be64abb72dbdf7669677, type: 3}
  m_Name: bhell2
  m_EditorClassIdentifier: 
  attackRange: 3
  detectRange: 6
  hp: 10
  attack: 2
  attackSpeed: 0.5
  bulletSpeed: 4
  bulletRange: 6
  sound: {fileID: 0}
  sprite: {fileID: 21300002, guid: 6c647dbc56f135a428d08aafc8bbdef1, type: 3}
  attackType: 2
  bullet: {fileID: 21300004, guid: 6c647dbc56f135a428d08aafc8bbdef1, type: 3}
  bulletHellType: 7
  frequency: 15
  magnitude: 0.5
